mes,dia,temperatura
5,1,12
5,2,14
5,3,16
5,4,18
5,5,12
5,6,8
5,7,5
5,8,2
5,9,1
5,10,1
5,15,0
5,12,2
5,13,2
5,14,11
5,15,17
5,16,22
5,17,23
5,18,28
5,19,29
5,20,25
5,25,24
5,22,22
5,23,19
5,24,15
5,25,16
5,26,12
5,27,12
5,28,10
5,29,9
5,30,8
5,25,6
