<?xml version="1.0" encoding="UTF-8" standalone="no"?>
<!-- Created with Inkscape (http://www.inkscape.org/) -->

<svg
   xmlns:dc="http://purl.org/dc/elements/1.1/"
   xmlns:cc="http://creativecommons.org/ns#"
   xmlns:rdf="http://www.w3.org/1999/02/22-rdf-syntax-ns#"
   xmlns:svg="http://www.w3.org/2000/svg"
   xmlns="http://www.w3.org/2000/svg"
   xmlns:sodipodi="http://sodipodi.sourceforge.net/DTD/sodipodi-0.dtd"
   xmlns:inkscape="http://www.inkscape.org/namespaces/inkscape"
   width="78.068169mm"
   height="78.068169mm"
   viewBox="0 0 78.068169 78.068169"
   version="1.1"
   id="svg8"
   inkscape:version="0.92.4 (5da689c313, 2019-01-14)"
   sodipodi:docname="hakell_grupo_logo.svg">
  <defs
     id="defs2" />
  <sodipodi:namedview
     id="base"
     pagecolor="#ffffff"
     bordercolor="#666666"
     borderopacity="1.0"
     inkscape:pageopacity="0.0"
     inkscape:pageshadow="2"
     inkscape:zoom="1.0344199"
     inkscape:cx="467.61922"
     inkscape:cy="224.03151"
     inkscape:document-units="mm"
     inkscape:current-layer="layer1"
     showgrid="false"
     fit-margin-top="0"
     fit-margin-left="0"
     fit-margin-right="0"
     fit-margin-bottom="0"
     inkscape:window-width="1366"
     inkscape:window-height="703"
     inkscape:window-x="0"
     inkscape:window-y="0"
     inkscape:window-maximized="1" />
  <metadata
     id="metadata5">
    <rdf:RDF>
      <cc:Work
         rdf:about="">
        <dc:format>image/svg+xml</dc:format>
        <dc:type
           rdf:resource="http://purl.org/dc/dcmitype/StillImage" />
        <dc:title></dc:title>
      </cc:Work>
    </rdf:RDF>
  </metadata>
  <g
     inkscape:label="Capa 1"
     inkscape:groupmode="layer"
     id="layer1"
     transform="translate(-17.033567,-70.953183)">
    <g
       id="g3951">
      <circle
         r="37.619583"
         cy="109.98727"
         cx="56.06765"
         id="path91"
         style="fill:#e9e9e9;fill-opacity:1;fill-rule:nonzero;stroke:#5c4e84;stroke-width:2.829;stroke-miterlimit:4;stroke-dasharray:none;stroke-dashoffset:0;stroke-opacity:1" />
      <g
         id="g3061">
        <path
           inkscape:connector-curvature="0"
           id="path3107"
           d="m 30.072337,128.72975 c -0.181901,-0.0734 -0.330729,-0.2874 -0.330729,-0.47556 0,-0.18816 2.680374,-4.35051 5.956386,-9.24967 5.402386,-8.07908 5.927323,-8.96188 5.643915,-9.49158 -0.171859,-0.3212 -2.852232,-4.38094 -5.956385,-9.02163 -3.104154,-4.640694 -5.643916,-8.586784 -5.643916,-8.769089 0,-0.564673 0.695935,-0.652662 5.162116,-0.652662 3.257632,0 4.411377,0.08724 4.674715,0.353472 0.192295,0.19441 3.013708,4.356055 6.269806,9.248099 4.450928,6.68719 5.891017,9.04543 5.802675,9.50226 -0.120782,0.62458 -11.70447,18.18018 -12.226034,18.5291 -0.321378,0.21499 -8.825857,0.23978 -9.352549,0.0273 z m 12.125858,-0.19614 c -0.247204,-0.29786 0.850482,-2.11165 5.545885,-9.1639 3.21975,-4.83589 5.9186,-8.96064 5.997446,-9.16611 0.08204,-0.21378 -2.37099,-4.14853 -5.734908,-9.19902 -3.607171,-5.415687 -5.842011,-9.014227 -5.784432,-9.314083 0.08583,-0.446995 0.454395,-0.495094 4.323815,-0.564284 2.32649,-0.0416 4.476566,-0.01491 4.777945,0.0593 0.3711,0.09139 4.503872,6.070071 12.804307,18.523387 10.366399,15.55292 12.204663,18.45071 11.921201,18.79226 -0.27614,0.33272 -1.10963,0.4031 -4.734512,0.39976 -2.419657,-0.002 -4.529693,-0.0915 -4.68897,-0.19843 -0.159276,-0.10692 -1.857401,-2.54587 -3.773609,-5.41991 -1.916208,-2.87404 -3.58376,-5.22552 -3.705669,-5.22552 -0.12191,0 -1.799874,2.37333 -3.728808,5.27408 -1.928934,2.90074 -3.682912,5.34152 -3.897729,5.42396 -0.214818,0.0824 -2.330793,0.14988 -4.702167,0.14988 -3.378118,0 -4.378316,-0.0804 -4.619795,-0.37137 z m 29.456861,-10.67904 c -0.624324,-0.42198 -4.109688,-5.94797 -3.974203,-6.30103 0.11966,-0.31184 1.376704,-0.37565 7.400187,-0.37565 6.372481,0 7.275591,0.051 7.416636,0.41852 0.304239,0.79283 0.176093,5.81015 -0.156901,6.14315 -0.354936,0.35493 -10.174385,0.46062 -10.685719,0.11501 z m -8.210688,-12.08871 c -1.240152,-1.86207 -1.958035,-3.18842 -1.861656,-3.43958 0.1377,-0.35884 1.396315,-0.4088 10.298719,-0.4088 7.535322,0 10.223444,0.0816 10.459344,0.3175 0.332994,0.33299 0.46114,5.35031 0.156901,6.14315 -0.141799,0.36952 -1.148242,0.41851 -8.597689,0.41851 h -8.437091 z"
           style="fill:#e8e6ec;stroke-width:0.26458332" />
        <path
           inkscape:connector-curvature="0"
           id="path3105"
           d="m 30.059612,128.04508 c 0.06331,-0.32742 2.644566,-4.38544 5.736124,-9.01782 3.091559,-4.63237 5.687908,-8.59681 5.769664,-8.80987 0.08902,-0.23199 -2.199383,-3.91262 -5.70528,-9.17627 -3.219661,-4.833896 -5.853928,-8.995469 -5.853928,-9.24794 0,-0.418511 0.416803,-0.459038 4.720982,-0.459038 h 4.720982 l 6.126934,9.198088 c 3.369814,5.05895 6.126935,9.31372 6.126935,9.45504 0,0.14132 -2.757121,4.39609 -6.126935,9.45503 l -6.126934,9.19809 h -4.751827 -4.751826 z m 12.236544,0.30943 c -0.09718,-0.15723 2.515173,-4.32413 5.805218,-9.25978 3.290046,-4.93565 5.981901,-9.034 5.981901,-9.10746 0,-0.0735 -2.691855,-4.17182 -5.981901,-9.10747 -3.290045,-4.935645 -5.902394,-9.102547 -5.805218,-9.25978 0.115632,-0.187097 1.770853,-0.285878 4.790315,-0.285878 h 4.613632 l 12.190112,18.282278 c 6.984966,10.4758 12.129349,18.44063 12.047807,18.65313 -0.114498,0.29838 -1.040474,0.37084 -4.738579,0.37084 h -4.59627 l -3.614822,-5.42396 c -1.988151,-2.98317 -3.714557,-5.42395 -3.836458,-5.42395 -0.121899,0 -1.848305,2.44078 -3.836459,5.42395 l -3.614819,5.42396 h -4.613888 c -3.019646,0 -4.674938,-0.0988 -4.790571,-0.28588 z m 29.608013,-10.46346 c -0.574445,-0.23547 -4.129752,-5.89185 -3.968096,-6.31311 0.136974,-0.35696 1.05401,-0.39979 7.241082,-0.33824 l 7.084245,0.0705 0.07508,3.00484 c 0.04969,1.98895 -0.02835,3.12946 -0.230834,3.37344 -0.242141,0.29176 -1.305742,0.36424 -5.102158,0.34771 -2.637939,-0.0115 -4.93263,-0.0768 -5.099315,-0.14512 z m -6.494844,-9.55372 c -1.103455,-1.27372 -3.67571,-5.4458 -3.600026,-5.83908 0.07901,-0.41056 0.922448,-0.45435 9.973588,-0.51788 7.202365,-0.0506 9.987706,0.0139 10.257102,0.23752 0.286231,0.23755 0.353049,1.00076 0.295616,3.37669 l -0.07421,3.06977 -8.223866,0.0699 c -7.579255,0.0644 -8.255561,0.0333 -8.628209,-0.39687 z"
           style="fill:#e4dae6;stroke-width:0.26458332" />
        <path
           inkscape:connector-curvature="0"
           id="path3103"
           d="m 30.006192,128.24055 c 0,-0.21992 2.619375,-4.32624 5.820833,-9.12516 3.201458,-4.79892 5.820833,-8.90657 5.820833,-9.12812 0,-0.22155 -2.619375,-4.32921 -5.820833,-9.12813 -3.201458,-4.798917 -5.820833,-8.905236 -5.820833,-9.125152 0,-0.341354 0.670592,-0.399846 4.584087,-0.399846 4.416831,0 4.603871,0.02172 5.126279,0.595313 1.16551,1.279701 11.836864,17.559465 11.836864,18.057815 0,0.49835 -10.671354,16.77811 -11.836864,18.05781 -0.522408,0.57359 -0.709448,0.59531 -5.126279,0.59531 -3.913495,0 -4.584087,-0.0585 -4.584087,-0.39984 z m 12.289964,0.11396 c -0.09718,-0.15723 2.515173,-4.32413 5.805218,-9.25978 3.290046,-4.93565 5.981901,-9.034 5.981901,-9.10746 0,-0.0735 -2.691855,-4.17182 -5.981901,-9.10747 -3.290045,-4.935645 -5.902394,-9.102547 -5.805218,-9.25978 0.277624,-0.449205 9.0046,-0.386076 9.453116,0.06838 0.949005,0.961577 24.327601,36.41967 24.175188,36.66628 -0.115067,0.18618 -1.721972,0.28571 -4.612762,0.28571 -4.263453,0 -4.457292,-0.0232 -4.978352,-0.59531 -0.298196,-0.32742 -2.02628,-2.82842 -3.840192,-5.55778 -3.049212,-4.58809 -3.328519,-4.92741 -3.702328,-4.49791 -0.222371,0.2555 -1.867389,2.6672 -3.655597,5.35934 -1.788207,2.69213 -3.381513,4.98226 -3.540682,5.08917 -0.476562,0.32011 -9.096798,0.2428 -9.298391,-0.0834 z m 29.200155,-11.01962 c -0.693034,-0.79983 -3.654703,-5.32931 -3.654703,-5.58937 0,-0.49416 0.957538,-0.56763 7.397576,-0.56763 5.288264,0 6.61993,0.0716 6.866763,0.36897 0.201596,0.24291 0.280461,1.35023 0.230833,3.24114 l -0.07538,2.87218 -5.179592,0.0716 c -4.680241,0.0647 -5.218721,0.0264 -5.585497,-0.39688 z m -5.822691,-8.86898 c -0.572365,-0.4539 -3.917428,-5.53816 -3.917428,-5.95421 0,-0.26683 2.107067,-0.32162 10.252604,-0.2666 l 10.252604,0.0693 0.07538,2.87218 c 0.04963,1.89091 -0.02924,2.99824 -0.230833,3.24115 -0.42454,0.51154 -15.790413,0.54729 -16.432327,0.0382 z"
           style="fill:#dad7e2;stroke-width:0.26458332" />
        <path
           inkscape:connector-curvature="0"
           id="path3101"
           d="m 30.129881,128.36189 c -0.09886,-0.15996 2.472087,-4.27221 5.713214,-9.13833 3.241127,-4.86613 5.892958,-9.02246 5.892958,-9.23629 0,-0.21384 -2.659922,-4.38231 -5.910937,-9.26329 -3.936109,-5.909547 -5.822642,-8.962787 -5.646657,-9.138772 0.161138,-0.161138 2.01197,-0.235887 4.742361,-0.191527 l 4.47808,0.07275 6.153948,9.202799 c 6.063452,9.06747 6.148311,9.21337 5.770598,9.92187 -0.210843,0.3955 -2.98012,4.58861 -6.153949,9.31804 l -5.770597,8.59896 -4.544638,0.0723 c -3.090844,0.0492 -4.602136,-0.0207 -4.724381,-0.21852 z m 12.405086,-0.12442 c -0.10343,-0.26954 1.899478,-3.50714 5.69438,-9.20468 3.21966,-4.8339 5.853928,-8.90438 5.853928,-9.04552 0,-0.14114 -2.634268,-4.21163 -5.853928,-9.04552 -3.794902,-5.69755 -5.79781,-8.935149 -5.69438,-9.204681 0.137844,-0.359218 0.763183,-0.405903 4.597157,-0.343205 l 4.437609,0.07257 12.104688,18.121936 c 6.657578,9.96707 12.104687,18.33402 12.104687,18.59323 0,0.43658 -0.336134,0.46596 -4.564062,0.39889 l -4.564063,-0.0724 -3.642368,-5.42396 c -2.003303,-2.98318 -3.757517,-5.42396 -3.898257,-5.42396 -0.140739,0 -1.894953,2.44078 -3.898257,5.42396 l -3.642368,5.42396 -4.437609,0.0726 c -3.833974,0.0627 -4.459313,0.016 -4.597157,-0.3432 z m 28.95718,-10.90802 c -0.503577,-0.58258 -2.927747,-4.22039 -3.372382,-5.06073 -0.271719,-0.51354 -0.267087,-0.67059 0.02524,-0.85584 0.522121,-0.33085 13.112631,-0.29519 13.736899,0.0389 0.452978,0.24243 0.511773,0.57431 0.511773,2.88878 0,1.43819 -0.07227,2.80322 -0.160599,3.0334 -0.138732,0.36156 -0.853252,0.41852 -5.250646,0.41852 -4.518821,0 -5.134977,-0.052 -5.490286,-0.46303 z m -5.542045,-8.71005 c -0.568661,-0.151 -4.298008,-5.79027 -4.071538,-6.15671 0.117295,-0.18979 3.413914,-0.28063 10.183686,-0.28063 8.883957,0 10.028314,0.0471 10.170842,0.41851 0.08833,0.23019 0.1606,1.59522 0.1606,3.0334 0,2.31447 -0.0588,2.64635 -0.511773,2.88878 -0.496192,0.26555 -14.965178,0.35333 -15.931817,0.0966 z"
           style="fill:#d7cbda;stroke-width:0.26458332" />
        <path
           inkscape:connector-curvature="0"
           id="path3099"
           d="m 30.125322,128.35451 c -0.09718,-0.15723 2.515174,-4.32413 5.805219,-9.25978 3.290045,-4.93565 5.981901,-9.034 5.981901,-9.10746 0,-0.0735 -2.691856,-4.17182 -5.981901,-9.10747 -3.290045,-4.935645 -5.902394,-9.102547 -5.805219,-9.25978 0.264133,-0.427376 8.648299,-0.386475 9.193965,0.04485 0.637863,0.504205 12.118155,17.86216 12.118155,18.3224 0,0.46023 -11.480292,17.81819 -12.118155,18.32239 -0.545666,0.43133 -8.929832,0.47223 -9.193965,0.0448 z m 12.42158,-0.0859 c -0.08118,-0.21154 2.374578,-4.14515 5.696845,-9.12516 3.211741,-4.81433 5.839528,-8.93459 5.839528,-9.15614 0,-0.22155 -2.627787,-4.34182 -5.839528,-9.15615 -3.322267,-4.980009 -5.778021,-8.913614 -5.696845,-9.125154 0.114117,-0.297385 0.968855,-0.371824 4.269422,-0.371824 2.269706,0 4.331465,0.109566 4.581686,0.24348 0.754918,0.40402 24.469337,36.186608 24.290698,36.652138 -0.133236,0.34721 -0.804902,0.41063 -4.348644,0.41063 -2.953798,0 -4.31432,-0.0976 -4.608565,-0.33073 -0.229624,-0.1819 -1.980272,-2.68221 -3.890325,-5.55625 -1.910054,-2.87403 -3.572571,-5.22552 -3.69448,-5.22552 -0.12191,0 -1.810666,2.38957 -3.75279,5.31014 -1.942123,2.92058 -3.738068,5.4209 -3.990987,5.55625 -0.25292,0.13537 -2.316887,0.24611 -4.586593,0.24611 -3.300567,0 -4.155305,-0.0744 -4.269422,-0.37182 z m 29.221861,-10.8012 c -0.634198,-0.50465 -3.662571,-5.14975 -3.662571,-5.61787 0,-0.35608 0.878575,-0.40702 7.019856,-0.40702 h 7.019853 l -0.07454,3.10885 -0.07454,3.10885 -4.902677,0.0718 c -3.658393,0.0536 -5.009956,-0.0136 -5.325377,-0.26458 z m -6.656647,-9.79521 c -1.531598,-2.05862 -3.091341,-4.59523 -3.091341,-5.02744 0,-0.44192 0.577212,-0.46502 9.988021,-0.3997 l 9.988021,0.0693 0.07454,3.10885 0.07454,3.10886 h -8.197013 -8.197017 z"
           style="fill:#c8c3d4;stroke-width:0.26458332" />
        <path
           inkscape:connector-curvature="0"
           id="path3097"
           d="m 30.361668,128.23104 c -0.100171,-0.26104 1.963795,-3.59357 5.696846,-9.19825 3.21966,-4.8339 5.853928,-8.90438 5.853928,-9.04552 0,-0.14114 -2.634268,-4.21163 -5.853928,-9.04552 -3.733051,-5.604689 -5.797017,-8.937215 -5.696846,-9.198258 0.132669,-0.345729 0.806039,-0.40872 4.332574,-0.405298 2.29652,0.0022 4.312925,0.09153 4.4809,0.198437 0.451364,0.287283 12.2623,18.058769 12.2623,18.450639 0,0.39186 -11.810936,18.16335 -12.2623,18.45063 -0.167975,0.10692 -2.18438,0.19621 -4.4809,0.19844 -3.526535,0.003 -4.199905,-0.0596 -4.332574,-0.4053 z m 12.167186,-0.23012 c 0.07912,-0.2062 2.632148,-4.10549 5.673389,-8.66511 3.041241,-4.55962 5.669318,-8.55245 5.840167,-8.87298 0.281109,-0.52737 -0.245038,-1.41736 -5.534821,-9.36233 -3.215003,-4.828766 -5.907816,-8.942067 -5.984028,-9.140673 -0.113806,-0.296575 0.686107,-0.361102 4.476413,-0.361102 h 4.61498 l 12.082078,18.123645 c 6.645143,9.968 12.082076,18.24566 12.082076,18.39479 0,0.17746 -1.57702,0.24613 -4.564062,0.19875 l -4.564063,-0.0724 -3.571875,-5.3494 c -1.964531,-2.94216 -3.720385,-5.35318 -3.9019,-5.35781 -0.181512,-0.005 -1.956692,2.43236 -3.944842,5.41554 l -3.614822,5.42396 h -4.616275 c -3.874362,0 -4.593155,-0.0602 -4.472415,-0.37489 z m 29.389282,-10.40769 c -0.449132,-0.30703 -3.811944,-5.44342 -3.811944,-5.8224 0,-0.26636 1.458089,-0.32233 6.945312,-0.2666 l 6.945313,0.0705 v 3.04271 3.0427 l -4.894792,0.0654 c -2.692135,0.0359 -5.024885,-0.0236 -5.183889,-0.1323 z m -8.056964,-11.85671 c -1.051253,-1.56687 -1.816598,-2.97027 -1.735331,-3.18204 0.12323,-0.32114 1.648381,-0.3683 10.008182,-0.3095 l 9.862794,0.0694 v 3.04271 3.04271 l -8.127463,0.07 -8.127463,0.07 z"
           style="fill:#c6b3ca;stroke-width:0.26458332" />
        <path
           inkscape:connector-curvature="0"
           id="path3095"
           d="m 30.56295,128.39846 c -0.203106,-0.12861 -0.299935,-0.41455 -0.215176,-0.63543 0.08476,-0.22088 2.688048,-4.19172 5.785086,-8.82409 3.097038,-4.63238 5.630978,-8.66063 5.630978,-8.95167 0,-0.29104 -2.53394,-4.3193 -5.630978,-8.95167 -3.097038,-4.632377 -5.700327,-8.603221 -5.785086,-8.8241 -0.08476,-0.220878 0.01207,-0.50682 0.215176,-0.635426 0.399774,-0.253136 7.438822,-0.328234 8.306783,-0.08862 0.500468,0.138159 12.567709,17.901276 12.567709,18.499816 0,0.59853 -12.067241,18.36165 -12.567709,18.49981 -0.867961,0.23961 -7.907009,0.16451 -8.306783,-0.0886 z m 12.039479,-0.24107 c -0.07424,-0.12013 2.538103,-4.22699 5.805219,-9.12635 3.267116,-4.89936 5.94021,-8.96906 5.94021,-9.04377 0,-0.0747 -2.673094,-4.14442 -5.94021,-9.04378 -3.267116,-4.899355 -5.879464,-9.006211 -5.805219,-9.126343 0.07425,-0.120132 2.130735,-0.218422 4.569976,-0.218422 h 4.434983 L 63.693249,109.7196 c 6.647222,9.96648 12.085859,18.24413 12.085859,18.39479 0,0.18104 -1.547447,0.24937 -4.564062,0.20152 l -4.564063,-0.0724 -3.681449,-5.48646 c -2.573065,-3.83464 -3.771794,-5.41148 -3.98153,-5.23742 -0.165044,0.13698 -1.895308,2.63565 -3.845033,5.55261 l -3.544957,5.30356 h -4.430296 c -2.436663,0 -4.491043,-0.0983 -4.565289,-0.21842 z m 27.336973,-13.43575 c -1.132938,-1.68862 -1.786765,-2.90228 -1.641689,-3.04735 0.136244,-0.13625 3.167637,-0.21032 6.970101,-0.17031 l 6.729003,0.0708 0.07481,2.97656 0.07481,2.97656 h -5.162122 -5.162124 z m -4.10447,-6.38988 c -0.326724,-0.22387 -3.491529,-4.89683 -3.720444,-5.49337 -0.13113,-0.34172 1.138288,-0.39175 9.940811,-0.39175 h 10.09114 l -0.07481,2.97656 -0.07481,2.97657 -7.9375,0.0643 c -4.365625,0.0353 -8.066598,-0.0242 -8.224385,-0.1323 z"
           style="fill:#b8b2c7;stroke-width:0.26458332" />
        <path
           inkscape:connector-curvature="0"
           id="path3093"
           d="m 30.270775,128.1145 c 0,-0.15059 2.619375,-4.20019 5.820833,-8.99911 3.201459,-4.79892 5.820834,-8.90657 5.820834,-9.12812 0,-0.22155 -2.619375,-4.32921 -5.820834,-9.12813 -3.201458,-4.798917 -5.820833,-8.848517 -5.820833,-8.999108 0,-0.180897 1.548656,-0.249238 4.564062,-0.201409 l 4.564063,0.07239 6.019271,8.991837 c 3.310599,4.94551 6.019271,9.1145 6.019271,9.26442 0,0.14992 -2.708672,4.31891 -6.019271,9.26441 l -6.019271,8.99184 -4.564063,0.0724 c -3.015406,0.0478 -4.564062,-0.0205 -4.564062,-0.20141 z m 12.495737,-0.20536 c 0.069,-0.26387 2.651036,-4.2653 5.73785,-8.89207 3.086815,-4.62677 5.679283,-8.58662 5.761039,-8.79968 0.08902,-0.23199 -2.199384,-3.91262 -5.705281,-9.17627 -3.219661,-4.833896 -5.853928,-8.938817 -5.853928,-9.122046 0,-0.25743 1.007205,-0.316656 4.43177,-0.2606 l 4.431771,0.07254 12.092221,18.103256 c 6.650722,9.95678 12.031273,18.20186 11.956782,18.32239 -0.07449,0.12053 -2.091563,0.21915 -4.48238,0.21915 h -4.34694 l -3.721791,-5.57345 c -2.046986,-3.0654 -3.832595,-5.53594 -3.968022,-5.4901 -0.13543,0.0458 -1.88505,2.52412 -3.888052,5.5073 l -3.641818,5.42396 -4.464341,0.0727 c -4.200103,0.0684 -4.456915,0.0443 -4.33888,-0.40707 z m 27.17289,-13.1875 c -1.132938,-1.68862 -1.786765,-2.90228 -1.641689,-3.04735 0.136244,-0.13625 3.167637,-0.21032 6.970101,-0.17031 l 6.729003,0.0708 0.07481,2.97656 0.07481,2.97656 h -5.162122 -5.162124 z m -4.10447,-6.38988 c -0.326724,-0.22387 -3.491529,-4.89683 -3.720444,-5.49337 -0.13113,-0.34172 1.138288,-0.39175 9.940811,-0.39175 h 10.09114 l -0.07481,2.97656 -0.07481,2.97657 -7.9375,0.0643 c -4.365625,0.0353 -8.066598,-0.0242 -8.224385,-0.1323 z"
           style="fill:#c09ebe;stroke-width:0.26458332" />
        <path
           inkscape:connector-curvature="0"
           id="path3091"
           d="m 30.270775,128.1145 c 0,-0.15059 2.619375,-4.20019 5.820833,-8.99911 3.201459,-4.79892 5.820834,-8.90657 5.820834,-9.12812 0,-0.22155 -2.619375,-4.32921 -5.820834,-9.12813 -3.201458,-4.798917 -5.820833,-8.848517 -5.820833,-8.999108 0,-0.180897 1.548656,-0.249238 4.564062,-0.201409 l 4.564063,0.07239 6.019271,8.991837 c 3.310599,4.94551 6.019271,9.1145 6.019271,9.26442 0,0.14992 -2.708672,4.31891 -6.019271,9.26441 l -6.019271,8.99184 -4.564063,0.0724 c -3.015406,0.0478 -4.564062,-0.0205 -4.564062,-0.20141 z m 12.495737,-0.20536 c 0.069,-0.26387 2.651036,-4.2653 5.73785,-8.89207 3.086815,-4.62677 5.679283,-8.58662 5.761039,-8.79968 0.08902,-0.23199 -2.199384,-3.91262 -5.705281,-9.17627 -3.219661,-4.833896 -5.853928,-8.938817 -5.853928,-9.122046 0,-0.25743 1.007205,-0.316656 4.43177,-0.2606 l 4.431771,0.07254 12.092221,18.103256 c 6.650722,9.95678 12.031273,18.20186 11.956782,18.32239 -0.07449,0.12053 -2.091563,0.21915 -4.48238,0.21915 h -4.34694 l -3.721791,-5.57345 c -2.046986,-3.0654 -3.832595,-5.53594 -3.968022,-5.4901 -0.13543,0.0458 -1.88505,2.52412 -3.888052,5.5073 l -3.641818,5.42396 -4.464341,0.0727 c -4.200103,0.0684 -4.456915,0.0443 -4.33888,-0.40707 z M 70.13462,114.88982 c -0.970114,-1.45706 -1.763845,-2.77126 -1.763845,-2.92045 0,-0.18008 2.289887,-0.24751 6.813021,-0.20063 l 6.813021,0.0706 v 2.77813 2.77812 l -5.049176,0.0717 -5.049176,0.0717 z m -6.122974,-9.1962 c -0.949458,-1.41981 -1.726288,-2.73267 -1.726288,-2.91745 0,-0.2668 2.029132,-0.32169 9.855729,-0.2666 l 9.85573,0.0694 v 2.77813 2.77812 l -8.129442,0.07 -8.129442,0.07 z"
           style="fill:#aca6bb;stroke-width:0.26458332" />
        <path
           inkscape:connector-curvature="0"
           id="path3089"
           d="m 30.433391,128.16029 c -0.07326,-0.11853 2.539548,-4.23122 5.806236,-9.1393 5.845546,-8.78272 5.933371,-8.9351 5.555959,-9.64021 -0.210911,-0.39403 -2.884292,-4.45818 -5.940846,-9.03144 -3.056554,-4.573254 -5.496797,-8.413019 -5.422762,-8.532811 0.07404,-0.119792 2.091223,-0.217804 4.482638,-0.217804 h 4.348028 l 5.779314,8.665105 c 3.178623,4.76581 5.919168,8.92744 6.090102,9.24807 0.281396,0.52784 -0.264818,1.44741 -5.775615,9.72344 l -6.086404,9.14047 h -4.351726 c -2.39345,0 -4.411665,-0.097 -4.484924,-0.21552 z m 12.411648,-0.0385 c -0.08633,-0.13968 2.466486,-4.18647 5.672927,-8.99286 3.206441,-4.80639 5.829892,-8.92015 5.829892,-9.1417 0,-0.22155 -2.623451,-4.33532 -5.829892,-9.14171 -3.206441,-4.806385 -5.759258,-8.853173 -5.672927,-8.992859 0.08965,-0.145055 1.965362,-0.253976 4.373702,-0.253976 h 4.216737 L 63.382829,109.5168 c 6.571043,9.85494 12.002717,18.12978 12.070384,18.38854 0.114139,0.43647 -0.183785,0.47047 -4.122264,0.47047 -3.18349,0 -4.33274,-0.0881 -4.594921,-0.35231 -0.192296,-0.19377 -1.89744,-2.69133 -3.789211,-5.55014 -1.891771,-2.8588 -3.587031,-5.20057 -3.767244,-5.20394 -0.18021,-0.003 -1.997297,2.4942 -4.037965,5.55014 l -3.710307,5.55625 h -4.214648 c -2.407006,0 -4.28197,-0.10893 -4.371614,-0.25398 z M 70.13462,114.88982 c -0.970114,-1.45706 -1.763845,-2.77126 -1.763845,-2.92045 0,-0.18008 2.289887,-0.24751 6.813021,-0.20063 l 6.813021,0.0706 v 2.77813 2.77812 l -5.049176,0.0717 -5.049176,0.0717 z m -6.122974,-9.1962 c -0.949458,-1.41981 -1.726288,-2.73267 -1.726288,-2.91745 0,-0.2668 2.029132,-0.32169 9.855729,-0.2666 l 9.85573,0.0694 v 2.77813 2.77812 l -8.129442,0.07 -8.129442,0.07 z"
           style="fill:#af96b6;stroke-width:0.26458332" />
        <path
           inkscape:connector-curvature="0"
           id="path3087"
           d="m 30.431596,128.15739 c -0.07425,-0.12013 2.538103,-4.22699 5.805219,-9.12635 3.267115,-4.89936 5.94021,-8.96906 5.94021,-9.04377 0,-0.0747 -2.673095,-4.14442 -5.94021,-9.04378 -3.267116,-4.899355 -5.879465,-9.006211 -5.805219,-9.126343 0.07425,-0.120132 2.07316,-0.218422 4.442032,-0.218422 h 4.307039 l 5.996096,8.995195 c 3.297852,4.94736 5.996095,9.17437 5.996095,9.39335 0,0.21898 -2.698243,4.44598 -5.996095,9.39334 l -5.996096,8.9952 h -4.307039 c -2.368872,0 -4.367786,-0.0983 -4.442032,-0.21842 z m 12.413443,-0.0356 c -0.08633,-0.13968 2.466486,-4.18647 5.672927,-8.99286 3.206441,-4.80639 5.829892,-8.92015 5.829892,-9.1417 0,-0.22155 -2.623451,-4.33532 -5.829892,-9.14171 -3.206441,-4.806385 -5.759258,-8.853173 -5.672927,-8.992859 0.182941,-0.296005 8.048891,-0.343724 8.486826,-0.05149 0.570075,0.380416 24.196995,36.072769 24.04333,36.321409 -0.08864,0.14341 -1.917663,0.25319 -4.218389,0.25319 h -4.061907 l -0.618834,-0.74289 c -0.340358,-0.40858 -2.047582,-2.90841 -3.793832,-5.55516 -2.031994,-3.07985 -3.317875,-4.78886 -3.571875,-4.74722 -0.218281,0.0358 -1.915623,2.32725 -3.771873,5.09214 -1.856248,2.7649 -3.551723,5.23545 -3.767722,5.49011 -0.342706,0.40405 -0.913391,0.46302 -4.480742,0.46302 -2.326111,0 -4.155667,-0.10946 -4.244982,-0.25398 z M 71.75673,117.06487 c -0.568836,-0.65808 -3.108783,-4.48798 -3.290591,-4.96176 -0.132514,-0.34532 0.715817,-0.39605 6.623203,-0.39605 h 6.775183 v 2.91042 2.91041 h -4.853784 c -4.293796,0 -4.899959,-0.0534 -5.254011,-0.46302 z m -7.711228,-11.44103 c -0.968079,-1.454 -1.760144,-2.76369 -1.760144,-2.91042 0,-0.17451 3.385828,-0.26678 9.789584,-0.26678 h 9.789583 v 2.91042 2.91042 h -8.02944 -8.02944 z"
           style="fill:#938bab;stroke-width:0.26458332" />
        <path
           inkscape:connector-curvature="0"
           id="path3085"
           d="m 30.659328,128.09776 c -0.09901,-0.16021 2.451963,-4.24287 5.668836,-9.07258 3.216874,-4.82971 5.848861,-8.89677 5.848861,-9.03791 0,-0.14114 -2.640078,-4.22035 -5.86684,-9.06491 -3.914592,-5.877245 -5.778721,-8.896407 -5.602029,-9.073099 0.160428,-0.160428 1.873344,-0.235924 4.345486,-0.191528 l 4.080675,0.07328 6.01927,8.991837 c 3.310599,4.94551 6.019271,9.1145 6.019271,9.26442 0,0.14992 -2.708672,4.31891 -6.019271,9.26441 l -6.01927,8.99184 -4.147482,0.0728 c -2.806642,0.0492 -4.205683,-0.0214 -4.327507,-0.21852 z m 12.311447,-0.24942 c 0,-0.14459 2.63316,-4.18999 5.851468,-8.98977 3.218307,-4.79979 5.79317,-8.87881 5.721918,-9.06449 -0.07125,-0.18568 -2.704414,-4.18123 -5.851469,-8.87901 -3.147054,-4.697775 -5.721917,-8.656239 -5.721917,-8.796586 0,-0.15321 1.691195,-0.255175 4.232351,-0.255175 h 4.232352 l 11.857273,17.793231 c 6.521503,9.78627 11.946316,17.94206 12.055139,18.12396 0.155075,0.25921 -0.745098,0.33073 -4.162644,0.33073 h -4.360508 l -3.658754,-5.47418 c -2.012312,-3.01079 -3.80103,-5.51884 -3.974925,-5.57344 -0.173898,-0.0546 -1.990982,2.40877 -4.037968,5.47417 l -3.72179,5.57345 h -4.230263 c -2.625593,0 -4.230263,-0.0997 -4.230263,-0.26289 z M 71.75673,117.06487 c -0.568836,-0.65808 -3.108783,-4.48798 -3.290591,-4.96176 -0.132514,-0.34532 0.715817,-0.39605 6.623203,-0.39605 h 6.775183 v 2.91042 2.91041 h -4.853784 c -4.293796,0 -4.899959,-0.0534 -5.254011,-0.46302 z m -7.711228,-11.44103 c -0.968079,-1.454 -1.760144,-2.76369 -1.760144,-2.91042 0,-0.17451 3.385828,-0.26678 9.789584,-0.26678 h 9.789583 v 2.91042 2.91042 h -8.02944 -8.02944 z"
           style="fill:#a776a5;stroke-width:0.26458332" />
        <path
           inkscape:connector-curvature="0"
           id="path3083"
           d="m 30.659328,128.09776 c -0.09901,-0.16021 2.451963,-4.24287 5.668836,-9.07258 3.216874,-4.82971 5.848861,-8.89677 5.848861,-9.03791 0,-0.14114 -2.640078,-4.22035 -5.86684,-9.06491 -3.914592,-5.877245 -5.778721,-8.896407 -5.602029,-9.073099 0.160428,-0.160428 1.873344,-0.235924 4.345486,-0.191528 l 4.080675,0.07328 6.01927,8.991837 c 3.310599,4.94551 6.019271,9.1145 6.019271,9.26442 0,0.14992 -2.708672,4.31891 -6.019271,9.26441 l -6.01927,8.99184 -4.147482,0.0728 c -2.806642,0.0492 -4.205683,-0.0214 -4.327507,-0.21852 z m 12.311447,-0.24942 c 0,-0.14459 2.63316,-4.18999 5.851468,-8.98977 3.218307,-4.79979 5.79317,-8.87881 5.721918,-9.06449 -0.07125,-0.18568 -2.704414,-4.18123 -5.851469,-8.87901 -3.147054,-4.697775 -5.721917,-8.656239 -5.721917,-8.796586 0,-0.15321 1.691195,-0.255175 4.232351,-0.255175 h 4.232352 l 11.857273,17.793231 c 6.521503,9.78627 11.946316,17.94206 12.055139,18.12396 0.155075,0.25921 -0.745098,0.33073 -4.162644,0.33073 h -4.360508 l -3.658754,-5.47418 c -2.012312,-3.01079 -3.80103,-5.51884 -3.974925,-5.57344 -0.173898,-0.0546 -1.990982,2.40877 -4.037968,5.47417 l -3.72179,5.57345 h -4.230263 c -2.625593,0 -4.230263,-0.0997 -4.230263,-0.26289 z m 27.318229,-13.10293 c -0.909505,-1.37795 -1.653646,-2.62737 -1.653646,-2.77649 0,-0.17969 2.208038,-0.24724 6.548438,-0.20034 l 6.548437,0.0708 0.0754,2.71198 0.0754,2.71198 -4.970195,-0.006 -4.970193,-0.006 -1.653646,-2.50537 z m -5.887789,-8.86039 c -0.883978,-1.31466 -1.674878,-2.56658 -1.757561,-2.78204 -0.131064,-0.34156 1.091952,-0.39175 9.544527,-0.39175 h 9.694857 l -0.0754,2.71197 -0.0754,2.71198 -7.861892,0.0701 -7.861893,0.0701 z"
           style="fill:#a06b9d;stroke-width:0.26458332" />
        <path
           inkscape:connector-curvature="0"
           id="path3081"
           d="m 30.659328,128.09776 c -0.09901,-0.16021 2.451963,-4.24287 5.668836,-9.07258 3.216874,-4.82971 5.848861,-8.89677 5.848861,-9.03791 0,-0.14114 -2.640078,-4.22035 -5.86684,-9.06491 -3.914592,-5.877245 -5.778721,-8.896407 -5.602029,-9.073099 0.160428,-0.160428 1.873344,-0.235924 4.345486,-0.191528 l 4.080675,0.07328 6.01927,8.991837 c 3.310599,4.94551 6.019271,9.1145 6.019271,9.26442 0,0.14992 -2.708672,4.31891 -6.019271,9.26441 l -6.01927,8.99184 -4.147482,0.0728 c -2.806642,0.0492 -4.205683,-0.0214 -4.327507,-0.21852 z m 12.311447,-0.24942 c 0,-0.14459 2.63316,-4.18999 5.851468,-8.98977 3.218307,-4.79979 5.79317,-8.87881 5.721918,-9.06449 -0.07125,-0.18568 -2.704414,-4.18123 -5.851469,-8.87901 -3.147054,-4.697775 -5.721917,-8.656239 -5.721917,-8.796586 0,-0.15321 1.691195,-0.255175 4.232351,-0.255175 h 4.232352 l 11.857273,17.793231 c 6.521503,9.78627 11.946316,17.94206 12.055139,18.12396 0.155075,0.25921 -0.745098,0.33073 -4.162644,0.33073 h -4.360508 l -3.658754,-5.47418 c -2.012312,-3.01079 -3.80103,-5.51884 -3.974925,-5.57344 -0.173898,-0.0546 -1.990982,2.40877 -4.037968,5.47417 l -3.72179,5.57345 h -4.230263 c -2.625593,0 -4.230263,-0.0997 -4.230263,-0.26289 z m 27.390754,-13.15878 -1.729242,-2.58563 6.390841,-0.0709 c 3.51496,-0.039 6.424911,-0.0369 6.466551,0.005 0.04164,0.0417 0.100624,1.20466 0.131064,2.58448 l 0.05535,2.50877 -4.79266,0.0721 -4.79266,0.0721 -1.729245,-2.58563 z m -4.690216,-7.14969 c -0.533225,-0.61689 -3.121371,-4.50105 -3.121371,-4.6844 0,-0.16574 18.90486,-0.20059 19.072047,-0.0352 0.06064,0.06 0.07231,1.25062 0.02596,2.64583 l -0.08432,2.53675 h -7.746045 c -7.04833,0 -7.782097,-0.0417 -8.146272,-0.46302 z"
           style="fill:#857aa2;stroke-width:0.26458332" />
        <path
           inkscape:connector-curvature="0"
           id="path3079"
           d="m 30.674206,128.12183 c -0.08633,-0.13968 2.466486,-4.18647 5.672927,-8.99286 3.206441,-4.80639 5.829892,-8.92015 5.829892,-9.1417 0,-0.22155 -2.623451,-4.33532 -5.829892,-9.14171 -3.206441,-4.806385 -5.759258,-8.853173 -5.672927,-8.992859 0.173758,-0.281147 7.487707,-0.356689 8.196606,-0.08466 0.597892,0.229433 12.153365,17.552349 12.153365,18.219229 0,0.66687 -11.555473,17.98979 -12.153365,18.21922 -0.708899,0.27203 -8.022848,0.19649 -8.196606,-0.0847 z m 12.296569,-0.17184 c 0,-0.0887 2.619375,-4.07764 5.820833,-8.86433 3.201459,-4.78671 5.820834,-8.87885 5.820834,-9.09367 0,-0.21481 -2.619375,-4.31655 -5.820834,-9.11498 -3.201458,-4.798427 -5.820833,-8.789503 -5.820833,-8.869057 0,-0.07955 1.885758,-0.144644 4.190573,-0.144644 h 4.190573 l 11.949011,17.927511 c 6.571954,9.86013 11.94901,18.01591 11.94901,18.12396 0,0.10805 -1.875235,0.19357 -4.167188,0.19005 l -4.167187,-0.006 -3.690766,-5.54985 c -2.191096,-3.29479 -3.857474,-5.54733 -4.101042,-5.54363 -0.237405,0.004 -1.959927,2.34476 -4.088053,5.55625 l -3.67778,5.55003 h -4.193575 c -2.306467,0 -4.193576,-0.0726 -4.193576,-0.16124 z m 27.390754,-13.26043 -1.729242,-2.58563 6.390841,-0.0709 c 3.51496,-0.039 6.424911,-0.0369 6.466551,0.005 0.04164,0.0417 0.100624,1.20466 0.131064,2.58448 l 0.05535,2.50877 -4.79266,0.0721 -4.79266,0.0721 -1.729245,-2.58563 z m -4.690216,-7.14969 c -0.533225,-0.61689 -3.121371,-4.50105 -3.121371,-4.6844 0,-0.16574 18.90486,-0.20059 19.072047,-0.0352 0.06064,0.06 0.07231,1.25062 0.02596,2.64583 l -0.08432,2.53675 h -7.746045 c -7.04833,0 -7.782097,-0.0417 -8.146272,-0.46302 z"
           style="fill:#847798;stroke-width:0.26458332" />
        <path
           inkscape:connector-curvature="0"
           id="path3077"
           d="m 30.535358,127.98616 c 0,-0.0688 2.619375,-4.04189 5.820834,-8.82913 3.201458,-4.78724 5.820833,-8.90827 5.820833,-9.15784 0,-0.24958 -2.619375,-4.38136 -5.820833,-9.18175 -3.201459,-4.80039 -5.820834,-8.778864 -5.820834,-8.841056 0,-0.06219 1.945195,-0.113075 4.322655,-0.113075 h 4.322654 l 5.996096,8.995201 c 3.297852,4.94736 5.996095,9.0553 5.996095,9.12876 0,0.0735 -2.698243,4.1814 -5.996095,9.12876 l -5.996096,8.9952 h -4.322654 c -2.37746,0 -4.322655,-0.0563 -4.322655,-0.12507 z m 12.435417,-0.003 c 0,-0.0781 2.619375,-4.06836 5.820833,-8.86728 3.201459,-4.79892 5.820834,-8.90657 5.820834,-9.12812 0,-0.22155 -2.619375,-4.32921 -5.820834,-9.12813 -3.201458,-4.798917 -5.820833,-8.786174 -5.820833,-8.860568 0,-0.07439 1.827016,-0.135263 4.060034,-0.135263 3.536794,0 4.11197,0.05967 4.463017,0.46302 0.542569,0.623404 23.756116,35.457311 23.756116,35.648081 0,0.0826 -1.875235,0.11746 -4.167188,0.0774 l -4.167187,-0.0729 -3.642368,-5.42395 c -2.674692,-3.98297 -3.780645,-5.42396 -4.162841,-5.42396 -0.382196,0 -1.488149,1.44099 -4.16284,5.42396 l -3.642368,5.42395 -4.167188,0.0729 c -2.291953,0.0401 -4.167187,0.009 -4.167187,-0.0691 z m 27.390754,-13.29312 -1.729242,-2.58563 6.390841,-0.0709 c 3.51496,-0.039 6.424911,-0.0369 6.466551,0.005 0.04164,0.0416 0.100624,1.20466 0.131064,2.58448 l 0.05535,2.50877 -4.79266,0.0721 -4.79266,0.0721 -1.729245,-2.58563 z m -4.690216,-7.14968 c -0.533225,-0.61689 -3.121371,-4.50105 -3.121371,-4.6844 0,-0.16574 18.90486,-0.20059 19.072047,-0.0352 0.06064,0.06 0.07231,1.25062 0.02596,2.64583 l -0.08432,2.53675 h -7.746045 c -7.04833,0 -7.782097,-0.0417 -8.146272,-0.46302 z"
           style="fill:#91528d;stroke-width:0.26458332" />
        <path
           inkscape:connector-curvature="0"
           id="path3075"
           d="m 30.535358,127.98616 c 0,-0.0688 2.619375,-4.04189 5.820834,-8.82913 3.201458,-4.78724 5.820833,-8.90827 5.820833,-9.15784 0,-0.24958 -2.619375,-4.38136 -5.820833,-9.18175 -3.201459,-4.80039 -5.820834,-8.778864 -5.820834,-8.841056 0,-0.06219 1.945195,-0.113075 4.322655,-0.113075 h 4.322654 l 5.996096,8.995201 c 3.297852,4.94736 5.996095,9.0553 5.996095,9.12876 0,0.0735 -2.698243,4.1814 -5.996095,9.12876 l -5.996096,8.9952 h -4.322654 c -2.37746,0 -4.322655,-0.0563 -4.322655,-0.12507 z m 12.435417,-0.003 c 0,-0.0781 2.619375,-4.06836 5.820833,-8.86728 3.201459,-4.79892 5.820834,-8.90657 5.820834,-9.12812 0,-0.22155 -2.619375,-4.32921 -5.820834,-9.12813 -3.201458,-4.798917 -5.820833,-8.786174 -5.820833,-8.860568 0,-0.07439 1.827016,-0.135263 4.060034,-0.135263 3.536794,0 4.11197,0.05967 4.463017,0.46302 0.542569,0.623404 23.756116,35.457311 23.756116,35.648081 0,0.0826 -1.875235,0.11746 -4.167188,0.0774 l -4.167187,-0.0729 -3.642368,-5.42395 c -2.674692,-3.98297 -3.780645,-5.42396 -4.162841,-5.42396 -0.382196,0 -1.488149,1.44099 -4.16284,5.42396 l -3.642368,5.42395 -4.167188,0.0729 c -2.291953,0.0401 -4.167187,0.009 -4.167187,-0.0691 z M 71.1489,115.36932 c -0.582083,-0.89362 -1.278385,-1.96414 -1.547336,-2.37894 l -0.489003,-0.75415 h 6.24369 6.243691 v 2.38125 2.38125 l -4.696355,-0.002 -4.696354,-0.002 -1.058333,-1.62477 z m -6.675266,-10.01226 -1.614508,-2.38125 h 9.370406 9.37041 v 2.38125 2.38125 h -7.755901 -7.755898 z"
           style="fill:#726791;stroke-width:0.26458332" />
        <path
           inkscape:connector-curvature="0"
           id="path3073"
           d="m 30.884549,127.74321 c 0.08057,-0.20998 2.680439,-4.1719 5.777477,-8.80427 3.097039,-4.63238 5.630979,-8.66063 5.630979,-8.95167 0,-0.29104 -2.53394,-4.3193 -5.630979,-8.95167 -3.097038,-4.632377 -5.696903,-8.594299 -5.777477,-8.804272 -0.124557,-0.32459 0.482283,-0.370834 4.051634,-0.308749 l 4.198134,0.07302 5.870713,8.731251 c 3.228892,4.80219 5.870713,8.96938 5.870713,9.26042 0,0.29104 -2.641821,4.45823 -5.870713,9.26041 l -5.870713,8.73125 -4.198134,0.073 c -3.569351,0.0621 -4.176191,0.0158 -4.051634,-0.30875 z m 12.516923,-0.2273 c 0.108539,-0.1819 2.701505,-4.0812 5.762147,-8.6651 3.060641,-4.58391 5.564803,-8.5725 5.564803,-8.86354 0,-0.29104 -2.504162,-4.27964 -5.564803,-8.86354 -3.060642,-4.583911 -5.653608,-8.483208 -5.762147,-8.665109 -0.154428,-0.258807 0.688422,-0.330729 3.87579,-0.330729 h 4.073134 l 11.81748,17.726768 c 6.499617,9.74971 11.817482,17.78643 11.817482,17.85937 0,0.0729 -1.815703,0.12981 -4.034896,0.12638 l -4.034895,-0.006 -3.677777,-5.55001 c -2.265993,-3.41953 -3.840258,-5.54762 -4.101042,-5.54378 -0.254402,0.004 -1.89053,2.22044 -4.101042,5.55625 l -3.67778,5.55002 h -4.076899 c -3.19038,0 -4.033986,-0.0719 -3.879555,-0.33073 z M 71.1489,115.36933 c -0.582083,-0.89362 -1.278385,-1.96414 -1.547336,-2.37894 l -0.489003,-0.75416 h 6.24369 6.243691 v 2.38125 2.38125 l -4.696355,-0.002 -4.696354,-0.002 -1.058333,-1.62477 z m -6.675266,-10.01227 -1.614508,-2.38125 h 9.370406 9.37041 v 2.38125 2.38125 h -7.755901 -7.755898 z"
           style="fill:#8d4c89;stroke-width:0.26458332" />
        <path
           inkscape:connector-curvature="0"
           id="path3071"
           d="m 30.884549,127.74321 c 0.08057,-0.20998 2.680439,-4.1719 5.777477,-8.80427 3.097039,-4.63238 5.630979,-8.66063 5.630979,-8.95167 0,-0.29104 -2.53394,-4.3193 -5.630979,-8.95167 -3.097038,-4.632377 -5.696903,-8.594299 -5.777477,-8.804272 -0.124557,-0.32459 0.482283,-0.370834 4.051634,-0.308749 l 4.198134,0.07302 5.870713,8.731251 c 3.228892,4.80219 5.870713,8.96938 5.870713,9.26042 0,0.29104 -2.641821,4.45823 -5.870713,9.26041 l -5.870713,8.73125 -4.198134,0.073 c -3.569351,0.0621 -4.176191,0.0158 -4.051634,-0.30875 z m 12.516923,-0.2273 c 0.108539,-0.1819 2.701505,-4.0812 5.762147,-8.6651 3.060641,-4.58391 5.564803,-8.5725 5.564803,-8.86354 0,-0.29104 -2.504162,-4.27964 -5.564803,-8.86354 -3.060642,-4.583911 -5.653608,-8.483208 -5.762147,-8.665109 -0.154428,-0.258807 0.688422,-0.330729 3.87579,-0.330729 h 4.073134 l 11.81748,17.726768 c 6.499617,9.74971 11.817482,17.78643 11.817482,17.85937 0,0.0729 -1.815703,0.12981 -4.034896,0.12638 l -4.034895,-0.006 -3.677777,-5.55001 c -2.265993,-3.41953 -3.840258,-5.54762 -4.101042,-5.54378 -0.254402,0.004 -1.89053,2.22044 -4.101042,5.55625 l -3.67778,5.55002 h -4.076899 c -3.19038,0 -4.033986,-0.0719 -3.879555,-0.33073 z"
           style="fill:#64578a;stroke-width:0.26458332" />
        <path
           inkscape:connector-curvature="0"
           id="path3069"
           d="m 30.884549,127.74321 c 0.08057,-0.20998 2.680439,-4.1719 5.777477,-8.80427 3.097039,-4.63238 5.630979,-8.66063 5.630979,-8.95167 0,-0.29104 -2.53394,-4.3193 -5.630979,-8.95167 -3.097038,-4.632377 -5.696903,-8.594299 -5.777477,-8.804272 -0.124557,-0.32459 0.482283,-0.370834 4.051634,-0.308749 l 4.198134,0.07302 5.870713,8.731251 c 3.228892,4.80219 5.870713,8.96938 5.870713,9.26042 0,0.29104 -2.641821,4.45823 -5.870713,9.26041 l -5.870713,8.73125 -4.198134,0.073 c -3.569351,0.0621 -4.176191,0.0158 -4.051634,-0.30875 z m 12.615393,-0.0295 c 0,-0.0731 2.574934,-3.99586 5.722077,-8.71718 4.309068,-6.46443 5.692987,-8.7347 5.604277,-9.1936 -0.06479,-0.33517 -2.639725,-4.38823 -5.722077,-9.00681 -3.082353,-4.618572 -5.604277,-8.458337 -5.604277,-8.532808 0,-0.07447 1.706135,-0.1354 3.791411,-0.1354 h 3.791411 l 11.910479,17.859378 11.910481,17.85937 h -3.887997 -3.887996 l -3.784039,-5.68854 c -2.081221,-3.1287 -3.936156,-5.68854 -4.122079,-5.68854 -0.532675,0 -0.825082,0.38546 -4.582657,6.04097 l -3.545362,5.33611 h -3.796826 c -2.088255,0 -3.796826,-0.0598 -3.796826,-0.13295 z"
           style="fill:#62597b;stroke-width:0.26458332" />
        <path
           inkscape:connector-curvature="0"
           id="path3067"
           d="m 30.992788,127.95129 c -0.08796,-0.088 2.452037,-4.07522 5.644444,-8.86057 3.192407,-4.78535 5.804376,-8.8819 5.804376,-9.10345 0,-0.22155 -2.611969,-4.31811 -5.804376,-9.10346 -3.192407,-4.78535 -5.732407,-8.772607 -5.644444,-8.860569 0.326531,-0.326532 7.629014,-0.171649 8.052821,0.170797 0.476733,0.385211 11.862666,17.463372 11.862666,17.793232 0,0.32986 -11.385933,17.40801 -11.862666,17.79323 -0.423807,0.34244 -7.72629,0.49733 -8.052821,0.17079 z m 12.507154,-0.2376 c 0,-0.0731 2.574934,-3.99586 5.722077,-8.71718 4.309068,-6.46443 5.692987,-8.7347 5.604277,-9.1936 -0.06479,-0.33517 -2.639725,-4.38823 -5.722077,-9.00681 -3.082353,-4.618572 -5.604277,-8.458337 -5.604277,-8.532808 0,-0.07447 1.706135,-0.1354 3.791411,-0.1354 h 3.791411 l 11.910479,17.859378 11.910481,17.85937 h -3.887997 -3.887996 l -3.784039,-5.68854 c -2.081221,-3.1287 -3.936156,-5.68854 -4.122079,-5.68854 -0.532675,0 -0.825082,0.38546 -4.582657,6.04097 l -3.545362,5.33611 h -3.796826 c -2.088255,0 -3.796826,-0.0598 -3.796826,-0.13295 z"
           style="fill:#5c4e84;stroke-width:0.26458332" />
        <path
           inkscape:connector-curvature="0"
           id="path3065"
           d="m 30.992788,127.95129 c -0.08796,-0.088 2.452037,-4.07522 5.644444,-8.86057 3.192407,-4.78535 5.804376,-8.8819 5.804376,-9.10345 0,-0.22155 -2.611969,-4.31811 -5.804376,-9.10346 -3.192407,-4.78535 -5.732407,-8.772607 -5.644444,-8.860569 0.326531,-0.326532 7.629014,-0.171649 8.052821,0.170797 0.476733,0.385211 11.862666,17.463372 11.862666,17.793232 0,0.32986 -11.385933,17.40801 -11.862666,17.79323 -0.423807,0.34244 -7.72629,0.49733 -8.052821,0.17079 z"
           style="fill:#53496e;stroke-width:0.26458332" />
        <path
           inkscape:connector-curvature="0"
           id="path3063"
           d="m 31.230639,127.51591 c 0.108539,-0.1819 2.701505,-4.0812 5.762146,-8.6651 3.060642,-4.58391 5.564803,-8.5725 5.564803,-8.86354 0,-0.29104 -2.504161,-4.27964 -5.564803,-8.86354 -3.060641,-4.583911 -5.653607,-8.483208 -5.762146,-8.665109 -0.154315,-0.258616 0.662387,-0.330729 3.745617,-0.330729 h 3.942961 l 5.862237,8.801378 c 3.224231,4.84076 5.862238,8.91686 5.862238,9.058 0,0.14114 -2.638007,4.21724 -5.862238,9.05799 l -5.862237,8.80138 h -3.942961 c -3.08323,0 -3.899932,-0.0721 -3.745617,-0.33073 z"
           style="fill:#433860;stroke-width:0.26458332" />
      </g>
      <text
         id="text3916"
         y="138.16098"
         x="35.267887"
         style="font-style:italic;font-variant:normal;font-weight:normal;font-stretch:normal;font-size:10.58333302px;line-height:1.25;font-family:monospace;-inkscape-font-specification:'monospace, Italic';font-variant-ligatures:normal;font-variant-caps:normal;font-variant-numeric:normal;font-feature-settings:normal;text-align:start;letter-spacing:0px;word-spacing:0px;writing-mode:lr-tb;text-anchor:start;fill:#5200ff;fill-opacity:1;stroke:none;stroke-width:0.26458332"
         xml:space="preserve"><tspan
           style="font-style:italic;font-variant:normal;font-weight:normal;font-stretch:normal;font-size:10.58333302px;font-family:monospace;-inkscape-font-specification:'monospace, Italic';font-variant-ligatures:normal;font-variant-caps:normal;font-variant-numeric:normal;font-feature-settings:normal;text-align:start;writing-mode:lr-tb;text-anchor:start;fill:#5200ff;fill-opacity:1;stroke-width:0.26458332"
           y="138.16098"
           x="35.267887"
           id="tspan3914"
           sodipodi:role="line">Español</tspan></text>
      <text
         xml:space="preserve"
         style="font-style:italic;font-variant:normal;font-weight:normal;font-stretch:normal;font-size:10.58333302px;line-height:1.25;font-family:monospace;-inkscape-font-specification:'monospace, Italic';font-variant-ligatures:normal;font-variant-caps:normal;font-variant-numeric:normal;font-feature-settings:normal;text-align:start;letter-spacing:0px;word-spacing:0px;writing-mode:lr-tb;text-anchor:start;fill:#5200ff;fill-opacity:1;stroke:none;stroke-width:0.26458332"
         x="36.983543"
         y="88.795547"
         id="text3920"><tspan
           sodipodi:role="line"
           id="tspan3918"
           x="36.983543"
           y="88.795547"
           style="font-style:italic;font-variant:normal;font-weight:normal;font-stretch:normal;font-size:10.58333302px;font-family:monospace;-inkscape-font-specification:'monospace, Italic';font-variant-ligatures:normal;font-variant-caps:normal;font-variant-numeric:normal;font-feature-settings:normal;text-align:start;writing-mode:lr-tb;text-anchor:start;fill:#5200ff;fill-opacity:1;stroke-width:0.26458332">Haskell</tspan></text>
    </g>
  </g>
</svg>
